"117","5","canizaro@live.ca","l8w3g8",,"2012-08-17"
"116","5","podonnell@hitachitruck.com","N0b2B0",,"2012-08-17"
"115","5","iva.maric@onsemi.com","l8t4a6",,"2012-08-17"
"114","5","john_patti@rogers.com","N3B1J1",,"2012-08-17"
"113","5","tfritsch@ngi.ca","L9A1B1",,"2012-08-17"
"9","5","rlament@rogers.com","n3b1h1",,"2012-08-13"
"10","5","lee.mcculloch@ww.ccac-ont.ca","N1M1N7",,"2012-08-13"
"11","5","kharasen2005@hotmail.com","L8E4A7",,"2012-08-13"
"12","5","krlacey137@hotmail.com","N1S4V6",,"2012-08-13"
"13","5","dave@drknemesis.net","n2b3h9",,"2012-08-13"
"14","5","peggy.stewart@sympatico.ca","N2J1G2",,"2012-08-13"
"15","5","oe74@hotmail.com","N1H7A4",,"2012-08-13"
"16","5","awish10@hotmail.com","N0G2E0",,"2012-08-13"
"17","5","BODNACH@HHSC.CA","N0A1P0",,"2012-08-13"
"18","5","dawnehamilton@hotmail.com","N1E5A3",,"2012-08-13"
"19","5","h.anderson@uoguelph.ca","N1G1Z9",,"2012-08-13"
"20","5","metz4.mary@hotmail.com","N0B1J0",,"2012-08-13"
"21","5","ann.christie@ww.ccac-ont.ca","M1H8H5",,"2012-08-13"
"22","5","alexakathy@gmail.com","N7V2S6",,"2012-08-13"
"23","5","danderson111@cogeco.ca","L7P3B5",,"2012-08-13"
"24","5","andrea.holowaty@linamar.com","N2E3B2",,"2012-08-13"
"25","5","ppiacampo@hotmail.com","N1K1T8",,"2012-08-13"
"26","5","emurdock@sympatico.ca","L8H6B7",,"2012-08-13"
"27","5","Brat1_6@hotmail.com","N2E1L2",,"2012-08-13"
"28","5","heatherhealth2000@yahoo.ca","K2T1J7",,"2012-08-13"
"112","5","joannar16@gmail.com","n1H7v4",,"2012-08-17"
"30","5","barbshome@rogers.com","N4S4A6",,"2012-08-13"
"31","5","judithannkerr@rogers.com","N1G3L7",,"2012-08-13"
"32","5","bonnie@jerrycallen.ca","N1H6J2",,"2012-08-14"
"33","5","lori.white74@yahoo.ca","N1H4L3",,"2012-08-14"
"34","5","lesley.harrison@bell.net","L2R2E2",,"2012-08-14"
"35","5","krista@keltictransportation.com","E4R1X3",,"2012-08-14"
"36","5","bkrobins@uoguelph.ca","N1G2W1",,"2012-08-14"
"37","5","wallacejay140@gmail.com","l9c5b8",,"2012-08-14"
"38","5","violetskyes1221@gmail.com","n1r3v6",,"2012-08-14"
"39","5","schott@rogers.com","N0B2T0",,"2012-08-14"
"40","5","nkbarbato@gmail.com","N2E3N3",,"2012-08-14"
"41","5","connie.tapper@ncr.com","n2k3y5",,"2012-08-14"
"42","5","lauriehuras@hotmail.com","N0b2l0",,"2012-08-14"
"43","5","susan@sunsationdesign.ca","n2b2t1",,"2012-08-14"
"44","5","ballarose1@gmail.com","N1E1T1",,"2012-08-14"
"45","5","hiker.girl@live.com","N1E3T7",,"2012-08-14"
"46","5","cyas00n@yahoo.ca","N7S2V7",,"2012-08-14"
"47","5","gregkalyta@yahoo.ca","l6l6w6",,"2012-08-14"
"48","5","JDaTforever@hotmail.com","n2t2l5",,"2012-08-14"
"49","5","gigi.girl67@gmail.com","j6v1k9",,"2012-08-14"
"50","5","knightk@hhsc.ca","N3W2K2",,"2012-08-14"
"51","5","jimnetta@sympatico.ca","N1H6H9",,"2012-08-14"
"52","5","podonnell@hitachitruck.com","N0B2B0",,"2012-08-14"
"53","5","anna.campbell@gto.net","n3b2a9",,"2012-08-14"
"54","5","judy@leispet.com","N0B2T0",,"2012-08-14"
"55","5","creationsbrooklee@gmail.com","n1h7z8",,"2012-08-14"
"56","5","jfraser58@hotmail.com","L0M1S0",,"2012-08-14"
"57","5","donnajmiller1@gmail.com","L0R1J0",,"2012-08-14"
"58","5","donnajmiller1@gmail.com","L0R1J0",,"2012-08-14"
"111","5","zekejulie@rogers.com","M4G2Z4",,"2012-08-17"
"60","5","soupy_jr@hotmail.com","M4X1w7",,"2012-08-14"
"61","5","campbell_kathy@hotmail.com","N2E3C8",,"2012-08-14"
"62","5","fruity_tuty@hotmail.com","N2N1H5",,"2012-08-14"
"63","5","soupycampbell@rogers.com","N2E3C8",,"2012-08-14"
"64","5","vettechick75@hotmail.com","n2a1y2",,"2012-08-15"
"65","5","weyers218@hotmail.com","N0G1B0",,"2012-08-15"
"66","5","cvc74@hotmail.com","N2E2R9",,"2012-08-15"
"67","5","lori.m.hennessey@gmail.com","N3C1Z8",,"2012-08-15"
"68","5","ddeneaul@hamilton.ca","L8L8G5",,"2012-08-15"
"69","5","guy.rayner@loblaw.ca","N2A3V2",,"2012-08-15"
"106","5","vhummel@woolwich.ca","N3B3N8",,"2012-08-16"
"107","5","djbkging@golden.net","N0B2T0",,"2012-08-16"
"74","5","kylaepoirier@hotmail.com","n1e7h2",,"2012-08-15"
"75","5","midnightcrony@hotmail.com","P0K1T0",,"2012-08-15"
"108","5","djbkging@golden.net","N0B2T0",,"2012-08-16"
"77","5","army5@bell.net","N0N1M0",,"2012-08-15"
"78","5","lstruk@aecon.com","n2n1t4",,"2012-08-15"
"79","5","janekwhomes@gmail.com","N2K4K6",,"2012-08-15"
"80","5","kylefreestuffemail@gmail.com","M4X1w7",,"2012-08-15"
"81","5","kellieb@mfproperty.com","N1E7A3",,"2012-08-15"
"82","5","erica1@shaw.ca","L9C1B4",,"2012-08-15"
"83","5","judyjack67@yahoo.ca","N2R1Y6",,"2012-08-15"
"84","5","m_plas@hotmail.com","L8K2K7",,"2012-08-15"
"85","5","megillespie@sympatico.ca","M6H3B4",,"2012-08-16"
"105","5","vtsbvaughan@hotmail.com","N1S4K1",,"2012-08-16"
"87","5","schleps@rogers.com","N2A3P8",,"2012-08-16"
"88","5","michael_carroll@rogers.com","N2H3T2",,"2012-08-16"
"89","5","wreid9@cogeco.ca","L9g1n4",,"2012-08-16"
"90","5","toromakebeleifs@gmail.com","L2T1G8",,"2012-08-16"
"91","5","brittany.l.smit@gmail.com","N1E7B1",,"2012-08-16"
"92","5","cwlsn@rogers.com","N1L1R2",,"2012-08-16"
"93","5","blitzgolf@hotmail.com","N1R1H5",,"2012-08-16"
"94","5","b-barker@live.com","n1e0g6",,"2012-08-16"
"95","5","agnestracz@hotmail.com","L8K6H1",,"2012-08-16"
"96","5","rnrreflexology@hotmail.com","N1H7G9",,"2012-08-16"
"97","5","kristal.ayles@gmail.com","N1T1X6",,"2012-08-16"
"98","5","cirillomike@me.com","N1T1X6",,"2012-08-16"
"99","5","robtheo@hotmail.com","n2l5m1",,"2012-08-16"
"100","5","c.musselman@rogers.com","N2B3T7",,"2012-08-16"
"109","5","djbkging@golden.net","N0B2T0",,"2012-08-16"
"110","5","caewildman@gmail.com","K0K3J0",,"2012-08-16"
"103","5","patscremin@hotmail.com","N1L1H8",,"2012-08-16"
"104","5","cavanyoung@yahoo.com","M6H3B4",,"2012-08-16"
"118","5","straightupdoors@gmail.com","n3h4l6",,"2012-08-17"
"119","5","straightupdoors@gmail.com","n3h4l6",,"2012-08-17"
"120","5","dobbiecentral@hotmail.com","N1H8J8",,"2012-08-17"
"121","5","jfrgrad64@hotmail.com","N1H5E2",,"2012-08-17"
"122","5","gamsby@rogers.com","n1g4a7",,"2012-08-17"
"123","5","levignoble23@gmail.com","N1H8H4",,"2012-08-17"
"124","5","gamsby@rogers.com","n1g4a7",,"2012-08-17"
"125","5","mitzi.lawrence@phri.ca","L0R1P0",,"2012-08-17"
"126","5","dee9999ca@yahoo.ca","L7G4S4",,"2012-08-17"
"127","5","robert_g_rowe@yahoo.ca","L7G4S4",,"2012-08-17"
"128","5","richmondjl@hotmail.com","T0B3S0",,"2012-08-18"
"129","5","alirogers@live.ca","N7S4E5",,"2012-08-18"
"130","5","tlewis405@gmail.com","N1T1X2",,"2012-08-18"
"131","5","melbelle73@hotmail.com","L8W1C2",,"2012-08-18"
"132","5","d_saulnier@cogeco.ca","L8J2M1",,"2012-08-18"
"133","5","domenicdv@quickclic.net","l9b2k1",,"2012-08-19"
"134","5","promotion@skyeplace.com","N1G1M6",,"2012-08-19"
"135","5","karencontest@hotmail.com","N1H6W3",,"2012-08-19"
"136","5","kellysinger8@gmail.com","L7T1B5",,"2012-08-19"
"137","5","elizabethgosse@trentu.ca","L8P3E9",,"2012-08-20"
"138","5","plan11@gmail.com","L8P3E9",,"2012-08-20"
"139","5","mary@vandermareltrucking.ca","N1M2W7",,"2012-08-20"
"140","5","charlygirl44@yahoo.com","L9C5V8",,"2012-08-20"
"141","5","liannesemail@gmail.com","m1r4m3",,"2012-08-20"
"142","5","Trevor.Horzelenberg@hamilton.ca","L8P2X1",,"2012-08-20"
"143","5","bruzzi2001@yahoo.com","M9M1Z7",,"2012-08-20"
"144","5","meyer.jean051@sympatico.ca","N3C2K8",,"2012-08-21"
"145","5","xftv@aol.com","L5W1B1",,"2012-08-21"
"146","5","sandtav@aol.com","L5W1B1",,"2012-08-21"
"147","5","mscherbarth@hotmail.com","N0K1N0",,"2012-08-21"
"148","5","dclarkso@stjoes.ca","L8N3Y3",,"2012-08-21"
"149","5","beckytonyclarke@gmail.com","N6K2S7",,"2012-08-21"
"150","5","biankouzhu@hotmail.com","N2T2Z1",,"2012-08-21"
"151","5","epontalba@canwestdhi.com","N1K1E5",,"2012-08-21"
"152","5","bdayman@thamesfin.ca","N0M1X0",,"2012-08-21"
"153","5","fishmankelly@live.ca","n5w1m4",,"2012-08-21"
"154","5","vporce2884@rogers.com","N1E1J7",,"2012-08-21"
"155","5","jeannette.martin@gmail.com","N5Y1P1",,"2012-08-21"
"156","5","slovely69@hotmail.com","N2L4Z6",,"2012-08-22"
"157","5","maryannecaers11@gmail.com","N0J1J0",,"2012-08-22"
"158","5","elizabet_8888@yahoo.ca","l0r1w0",,"2012-08-22"
"159","5","cameo_50@hotmail.com","L7M4G5",,"2012-08-22"
"160","5","nat.duspara@hotmail.com","L8T2W6",,"2012-08-22"
"161","5","alley7@rogers.com","N1E6V5",,"2012-08-22"
"162","5","cwfreeman@golden.net","N0G1R0",,"2012-08-22"
"163","5","shkuratoff75@yahoo.ca","l0r1w0",,"2012-08-22"
"164","5","awish10@hotmail.com","N0G2E0",,"2012-08-22"
"165","5","cjack_77@hotmail.com","L8L5K3",,"2012-08-22"
"166","5","filomena.tosto@phri.ca","L8H3Y9",,"2012-08-22"
"167","5","beckyoneil@rogers.com","N1H2J8",,"2012-08-22"
"168","5","fridrich@rogers.com","N1L0E2",,"2012-08-22"
"169","5","raygleba@rogers.com","N0B1Y0",,"2012-08-22"
"170","5","melissacase15@gmail.com","N0G1P0",,"2012-08-22"
"171","5","gjnickel@hotmail.com","N0G2N0",,"2012-08-23"
"172","5","lindsay_silva@yahoo.ca","N2A4B1",,"2012-08-23"
"173","5","gabebattaglia@hotmail.com","l9a3y2",,"2012-08-23"
"174","5","vpersaud@wlu.ca","N2K3M4",,"2012-08-23"
"175","5","Daleaben@hotmail.com","L9T4H4",,"2012-08-23"
"176","5","sandrabeckerrmt@rogers.com","n2j1z2",,"2012-08-23"
"177","5","alsogamo@gmail.com","N5V1R8",,"2012-08-24"
"178","5","mcpheds@hotmail.com","N0B2K0",,"2012-08-24"
"179","5","fishmankelly@live.ca","n5w1m4",,"2012-08-24"
"180","5","dizzy_izzy@sympatico.ca","N5P1A7",,"2012-08-24"
"181","5","val@stationearth.com","N1M2R3",,"2012-08-24"
"182","5","wwbbs2008@gmail.com","p0j1c0",,"2012-08-24"
"183","5","mary@vandermareltrucking.ca","N1M2W7",,"2012-08-24"
"184","5","lyndamcg@sympatico.ca","N5Y5N5",,"2012-08-24"
"185","5","rphair@bmts.com","n2z2r1",,"2012-08-24"
"186","5","hhiscox@shaw.ca","L9C2R4",,"2012-08-25"
"187","5","thevillageidiots@rogers.com","N1G0A6",,"2012-08-25"
"188","5","eharmon@Rogers.com","N5R5L3",,"2012-08-25"
"189","5","clare@execulink.com","N0N1J3",,"2012-08-26"
"190","5","jpcoppard@sympatico.ca","N7G1S3",,"2012-08-26"
"191","5","lfoster@bmts.com","N0G2N0",,"2012-08-26"
"192","5","cathyrwood@gmail.com","N5Y3S3",,"2012-08-26"
"193","5","louise.carrigan@sympatico.ca","N5V3H7",,"2012-08-26"
"194","5","cheri.kelly080@sympatico.ca","L7G6M6",,"2012-08-27"
"195","5","i_am_a_ten@hotmail.com","N5W2E2",,"2012-08-27"
"196","5","carhuber@execulink.com","n2l6a9",,"2012-08-27"
"197","5","hmrussell@bell.net","N5X0A9",,"2012-08-27"
"198","5","brannan_lisa@yahoo.ca","N2L4K3",,"2012-08-27"
"199","5","caponicat@live.ca","N6A1L4",,"2012-08-27"
"200","5","lindachen26@yahoo.ca","L3R5G9",,"2012-08-27"
"201","5","pllisy@yahoo.ca","N2b2l7",,"2012-08-27"
"202","5","misspiderking@hotmail.com","n0e1m0",,"2012-08-28"
"203","5","hockeymomsdream@rogers.com","N2N2L3",,"2012-08-28"
"204","5","hockeymomsdream@live.ca","N2N2L3",,"2012-08-28"
"205","5","sandypelesh@hotmail.com","N4X1C3",,"2012-08-28"
"206","5","kristaoleary@eastlink.ca","N0G1L0",,"2012-08-29"
"207","5","thelmaball@hotmail.com","L9H4E6",,"2012-08-29"
"208","5","stasiacanada@yahoo.ca","N2T2X9",,"2012-08-29"
"209","5","porizj@hotmail.com","N2T2X9",,"2012-08-29"
"210","5","thealces@hay.net","N0M1T0",,"2012-08-30"
"211","5","i_am_a_ten@hotmail.com","N5W2E2",,"2012-08-30"
"212","5","caponicat@live.ca","N6A1L4",,"2012-08-30"
"213","5","lindapyne@rogers.com","N5R3A8",,"2012-08-30"
"214","5","gp@myblissfulhome.com","M6C2Z8",,"2012-08-31"
"215","5","jane.berardini@mlhu.on.ca","N6K2T8",,"2012-09-01"
"216","5","lori_field@bell.net","n6C1L7",,"2012-09-01"
"217","5","likeitornot@rogers.com","N5Z4N1",,"2012-09-01"
"218","5","c_trevitt@hotmail.com","N0L1G4",,"2012-09-01"
"219","5","harmlessdove74@hotmail.com","n5y4l4",,"2012-09-02"
"220","5","donnamarie35@hotmail.com","N4S8S7",,"2012-09-02"
"221","5","ranemak@kwic.com","N4G4G7",,"2012-09-02"
"222","5","muzztang.85@hotmail.com","n5z3z3",,"2012-09-02"
"223","5","brweber396@hotmail.com","N2Z2X6",,"2012-09-02"
"224","5","sfritz2009@hotmail.com","N0H2C1",,"2012-09-02"
"225","5","caponica@live.ca","N6A1L4",,"2012-09-03"
"226","5","jodygorman59@hotmail.com","N6B3P8",,"2012-09-03"
"227","5","kcini@hotmail.com","N5P3S8",,"2012-09-03"
"228","5","jfrgrad64@hotmail.com","N1H5E2",,"2012-09-03"
"229","5","jordan.mackinnon1@gmail.com","N0H2C5",,"2012-09-03"
"230","5","sheiswriting@hotmail.com","L1G2K1",,"2012-09-03"
