<?xml version="1.0" encoding="UTF-8"?>
<kml xmlns="http://www.opengis.net/kml/2.2" xmlns:gx="http://www.google.com/kml/ext/2.2" xmlns:kml="http://www.opengis.net/kml/2.2" xmlns:atom="http://www.w3.org/2005/Atom">
<Document>
	<name>North Shore Trail-4.kml</name>
	<Style id="sh_ylw-pushpin">
		<IconStyle>
			<scale>1.3</scale>
			<Icon>
				<href>http://maps.google.com/mapfiles/kml/pushpin/ylw-pushpin.png</href>
			</Icon>
			<hotSpot x="20" y="2" xunits="pixels" yunits="pixels"/>
		</IconStyle>
		<LineStyle>
			<color>ff3889f6</color>
		</LineStyle>
	</Style>
	<StyleMap id="msn_ylw-pushpin">
		<Pair>
			<key>normal</key>
			<styleUrl>#sn_ylw-pushpin</styleUrl>
		</Pair>
		<Pair>
			<key>highlight</key>
			<styleUrl>#sh_ylw-pushpin</styleUrl>
		</Pair>
	</StyleMap>
	<Style id="sn_ylw-pushpin">
		<IconStyle>
			<scale>1.1</scale>
			<Icon>
				<href>http://maps.google.com/mapfiles/kml/pushpin/ylw-pushpin.png</href>
			</Icon>
			<hotSpot x="20" y="2" xunits="pixels" yunits="pixels"/>
		</IconStyle>
		<LineStyle>
			<color>ff3889f6</color>
		</LineStyle>
	</Style>
	<Placemark>
		<name>North Shore Trail</name>
		<styleUrl>#msn_ylw-pushpin</styleUrl>
		<LineString>
			<tessellate>1</tessellate>
			<coordinates>
				-81.40735832286153,44.4494301738783,0 -81.40744437815019,44.4495189931564,0 -81.4074399276809,44.44958936799549,0 -81.407362905817,44.44976222829693,0 -81.40723220750398,44.45014820154664,0 -81.40716743226876,44.45038175146594,0 -81.40708915425598,44.45096204023672,0 -81.40700845591438,44.45131846309993,0 -81.406856378228,44.45164742398881,0 -81.4065203424917,44.45219241580674,0 -81.4058734768943,44.45323052661941,0 -81.40532479879805,44.45458632966405,0 -81.40518371673672,44.45508397605223,0 -81.40502750560242,44.45543691996288,0 -81.40451976620906,44.45649469475896,0 -81.40433736639756,44.4571529426196,0 -81.40427558427461,44.45735545747664,0 -81.4041310132653,44.45760536017836,0 -81.40384308596789,44.45806931424565,0 -81.40359345393139,44.45841225700519,0 -81.40330404839135,44.45881785912675,0 -81.40310403971442,44.45913275258364,0 -81.40287918201625,44.45929952792981,0 -81.40246295116928,44.45948826830045,0 -81.40220937711803,44.45961053037598,0 -81.40185647933481,44.45964374370097,0 -81.40156613836533,44.45987877449438,0 -81.40122848564276,44.46023634792433,0 -81.40093759819666,44.4606573543217,0 -81.40070883292874,44.46111016569382,0 -81.400588878872,44.46161507901608,0 -81.40059956049143,44.46203907956821,0 -81.40077120838653,44.46239199088791,0 -81.40094086892606,44.46258260026767,0 -81.40100239527476,44.46272380299533,0 -81.40097961702378,44.46285030986553,0 -81.40093416170691,44.46305160416915,0 -81.40078153003479,44.46332320693285,0 -81.40052800878598,44.46363182492072,0 -81.40044046818535,44.46367487046346,0 -81.40029571522442,44.46369342231104,0 -81.4001206905632,44.46369043582641,0 -81.39913392450927,44.46334783911746,0 -81.39903620317791,44.46336605997518,0 -81.39895879456823,44.46343314724196,0 -81.3984049636388,44.46459022830784,0 -81.39840245779304,44.46462615762515,0 -81.39847440303278,44.46477282693775,0 -81.39845338049425,44.46482669392187,0 -81.39838943684369,44.46490052905281,0 -81.39823785849073,44.46498493169311,0 -81.3977447269351,44.46518533284516,0 -81.39737709445684,44.46527931254466,0 -81.39707053997466,44.46531762634169,0 -81.39692310291943,44.46535345577689,0 -81.39672285167653,44.46537413734313,0 -81.39630954823208,44.46539413684786,0 -81.39608838571807,44.46542427099775,0 -81.39585022948479,44.46549005458967,0 -81.39554677140265,44.4656310818559,0 -81.39512284667582,44.46583101175504,0 -81.39484188875066,44.46591696367575,0 -81.39464006752198,44.46592835577148,0 -81.39437658733411,44.46589431965017,0 -81.39407761699015,44.46582752760902,0 -81.39379674546674,44.46577947902625,0 -81.39348928473073,44.46576699784116,0 -81.393245243702,44.46582216512719,0 -81.39288008061547,44.46599672326789,0 -81.39264020285717,44.46615532730004,0 -81.39238420268127,44.4663908960195,0 -81.39211497819383,44.46671012677769,0 -81.39193197055498,44.46686665399378,0 -81.39173769959072,44.46697678242718,0 -81.39149903316131,44.46700526043704,0 -81.391248330812,44.46695539647749,0 -81.39093029746989,44.46685580033199,0 -81.39068140625632,44.46681944849819,0 -81.39035712625636,44.46686517092724,0 -81.39005874452788,44.46701860692043,0 -81.38980747929948,44.4672179312702,0 -81.38951972720007,44.4676354462648,0 -81.38929816981531,44.46813238888384,0 -81.38920414118641,44.46841533444773,0 -81.38917142784267,44.46901990105984,0 -81.38922713332491,44.46955467708283,0 -81.38926039959789,44.4696793062716,0 -81.38959461462591,44.47064585051476,0 -81.38963750484588,44.47083437686075,0 -81.38965873408968,44.47098907224108,0 -81.38958311882645,44.471233328735,0 -81.38952737105846,44.47137060476328,0 -81.38947836906212,44.47151309079508,0 -81.38926980944593,44.47169214743722,0 -81.38900966515263,44.47183690711259,0 -81.38868245314472,44.47201041762176,0 -81.38853224912718,44.47202751478424,0 -81.38834822700507,44.47196877305712,0 -81.38826640863462,44.47189285698669,0 -81.38777267760096,44.47167699626415,0 -81.38766294554114,44.47166841778353,0 -81.38757360082235,44.47169506251338,0 -81.38747831093714,44.47178267370837,0 -81.38702365915722,44.47239553088205,0 -81.38686765798354,44.47261911810402,0 -81.38677303080128,44.47279888541803,0 -81.38666153885458,44.47303804885686,0 -81.38632523863777,44.47378866234923,0 -81.38629237365313,44.47389687793014,0 -81.38628593322684,44.47400016187516,0 -81.38630720334177,44.47410039063627,0 -81.38684412238719,44.47571452572091,0 -81.38690405513717,44.47584362372138,0 -81.38699111378617,44.47594881948412,0 -81.38724429925341,44.47621367562429,0 -81.387283023262,44.47633490688202,0 -81.38721429328643,44.47647491234452,0 -81.38710578579371,44.47657214107019,0 -81.38548117695198,44.47796629352214,0 -81.3846478882468,44.47868754752074,0 
			</coordinates>
		</LineString>
	</Placemark>
</Document>
</kml>
