<?xml version="1.0" encoding="UTF-8"?>
<kml xmlns="http://www.opengis.net/kml/2.2" xmlns:gx="http://www.google.com/kml/ext/2.2" xmlns:kml="http://www.opengis.net/kml/2.2" xmlns:atom="http://www.w3.org/2005/Atom">
<Document>
	<name>Lighthouses South.kml</name>
	<Style id="sn_ylw-pushpin">
		<IconStyle>
			<scale>1.1</scale>
			<Icon>
				<href>http://maps.google.com/mapfiles/kml/pushpin/ylw-pushpin.png</href>
			</Icon>
			<hotSpot x="20" y="2" xunits="pixels" yunits="pixels"/>
		</IconStyle>
		<LineStyle>
			<color>ff2fa1f7</color>
			<width>3</width>
		</LineStyle>
	</Style>
	<StyleMap id="msn_ylw-pushpin">
		<Pair>
			<key>normal</key>
			<styleUrl>#sn_ylw-pushpin</styleUrl>
		</Pair>
		<Pair>
			<key>highlight</key>
			<styleUrl>#sh_ylw-pushpin</styleUrl>
		</Pair>
	</StyleMap>
	<Style id="sh_ylw-pushpin">
		<IconStyle>
			<scale>1.3</scale>
			<Icon>
				<href>http://maps.google.com/mapfiles/kml/pushpin/ylw-pushpin.png</href>
			</Icon>
			<hotSpot x="20" y="2" xunits="pixels" yunits="pixels"/>
		</IconStyle>
		<LineStyle>
			<color>ff2fa1f7</color>
			<width>3</width>
		</LineStyle>
	</Style>
	<Folder>
		<name>Lighthouses South</name>
		<open>1</open>
		<Placemark>
			<name>Lighthouses South</name>
			<styleUrl>#msn_ylw-pushpin</styleUrl>
			<LineString>
				<tessellate>1</tessellate>
				<coordinates>
					-81.63789153264376,44.17703394592262,0 -81.63916186083156,44.17535289608937,0 -81.63972798025944,44.17458889807566,0 -81.64015010933403,44.17400822995193,0 -81.64084143489055,44.17313713661763,0 -81.64124439502574,44.17258749409255,0 -81.64182786397623,44.17188753032296,0 -81.64230166702362,44.17117589315856,0 -81.64289186797002,44.1703861303695,0 -81.64381091391306,44.16939845545578,0 -81.64432733133302,44.16891099447798,0 -81.64482241464395,44.16850647042722,0 -81.64551576030657,44.16788066033082,0 -81.64650897313162,44.16696973570337,0 -81.64726444335342,44.16627370423783,0 -81.64825088115693,44.16540098569401,0 -81.6492251323029,44.16458352016681,0 -81.65037484847231,44.16354653673393,0 -81.65072485012955,44.16359595148073,0 -81.65137012839402,44.16377837197035,0 -81.65159609702434,44.16379279140663,0 -81.65190197026187,44.16369360178418,0 -81.65239330140503,44.16341235005322,0 -81.65350965043206,44.16266921502379,0 -81.65454908100887,44.16207442489779,0 -81.65574784497677,44.16140859648624,0 -81.65652618476489,44.16086167244986,0 -81.65699256912525,44.16040788354672,0 -81.65770831539714,44.15950689788724,0 -81.65795092144239,44.1590039463773,0 -81.65813853496736,44.15846565965764,0 -81.65826104568217,44.15792277803414,0 -81.65888422759693,44.15672018229194,0 -81.65971470251152,44.15585236666606,0 -81.66050705209247,44.15488687603484,0 -81.66172355723505,44.15374175030608,0 -81.66383156380084,44.15154465643419,0 -81.66421493046361,44.15132233109131,0 -81.66452550240346,44.15113382737442,0 -81.66519156242964,44.15068860266511,0 -81.66676827150522,44.14955478282986,0 -81.66762515447924,44.14897924144152,0 -81.66929364018077,44.14792082304427,0 -81.6706843231521,44.14711351935187,0 -81.67215460408717,44.14623405478745,0 -81.67444443469454,44.14476062487945,0 -81.67623684563183,44.14363500611211,0 -81.67704207017051,44.14302502423087,0 -81.6781565614901,44.14205410441799,0 -81.6787842551505,44.14133142868064,0 -81.68007843296556,44.13990257434021,0 -81.68098690140594,44.13891601165994,0 -81.68196593461437,44.13792882170056,0 -81.68297394333277,44.13693258901496,0 -81.68409866461953,44.13600290822297,0 -81.68498335264985,44.13514489823007,0 -81.68004841496891,44.13308596560495,0 -81.68062478335496,44.13283640765059,0 -81.6818155154867,44.13242765919558,0 -81.68380482821216,44.13134460656195,0 -81.68512370095462,44.1304557849366,0 -81.68856197888239,44.12806165118576,0 -81.69104333306896,44.12609112679305,0 -81.69320749392219,44.12409139384994,0 -81.6958975844454,44.12164630403136,0 -81.69863190975644,44.11925213210749,0 -81.70086925770963,44.11680653567498,0 -81.70214838242181,44.1154693722762,0 -81.70275538089047,44.11500110066401,0 -81.70382862253076,44.11418861170413,0 -81.7038398582355,44.11417600244369,0 -81.70584077876542,44.11279621924156,0 -81.70848711420744,44.11083583829942,0 -81.70942639285077,44.10982637981047,0 -81.70990718503295,44.1090862053351,0 -81.7107809784263,44.10794918046078,0 -81.71112110133278,44.10769503716339,0 -81.71470021955187,44.1051695582657,0 -81.71810963591535,44.10245279961035,0 -81.72053791950232,44.10058871319807,0 -81.72389699297563,44.09763486016638,0 -81.72590951799971,44.09536530936805,0 -81.72696505422475,44.09395339565116,0 -81.72990336778609,44.08983240575559,0 -81.73256912033393,44.09085834696593,0 -81.73502674421188,44.08774614085453,0 -81.73744173367379,44.08426923637472,0 -81.73866064641793,44.0822854923192,0 -81.74051823162542,44.07938940410791,0 -81.74231013080481,44.07654416000064,0 -81.74373599203135,44.07436141255514,0 -81.74985124224617,44.07678309058763,0 -81.75020222138434,44.07667675477183,0 -81.75061984418633,44.07627570943171,0 -81.75203663008554,44.07446625709587,0 -81.75384665169865,44.07207550812546,0 -81.75656772709155,44.0731223330902,0 -81.75783050146836,44.0731740461467,0 -81.75653497746777,44.07318100928012,0 -81.75559230844065,44.07270702565133,0 -81.75387877796125,44.07204844999453,0 -81.75026164011712,44.07669224954765,0 -81.75000685503493,44.07680326586447,0 -81.74964170949438,44.07675506115831,0 -81.74364540380628,44.07439559092806,0 -81.74219604684383,44.0767806728433,0 -81.7388756346386,44.08190101658266,0 -81.73502972039657,44.08767896886661,0 -81.73255385796145,44.09092320662094,0 -81.72981707473225,44.08986320760863,0 -81.72651711624452,44.09472223708641,0 -81.72346891077464,44.09797054087807,0 -81.72004450690918,44.10094365036792,0 -81.71492060194993,44.10497678456903,0 -81.71286495075451,44.10649536412056,0 -81.71103619303685,44.10770738707019,0 -81.71015775544033,44.10868572743131,0 -81.70852995833286,44.11084863260349,0 -81.70745440903698,44.11166125009199,0 -81.70554841571355,44.11295254083151,0 -81.7041301202064,44.11396412921211,0 -81.70191719237037,44.11565411803745,0 -81.70115516790045,44.11642528051513,0 -81.70057771585863,44.11708155698577,0 -81.69850882312312,44.11944715210449,0 -81.69711416711256,44.11887248601369,0 -81.68594540745006,44.11441623003039,0 -81.67673363896276,44.11071449261851,0 -81.66745239839894,44.1070786546531,0 -81.65508849175053,44.10218875455485,0 -81.64321730426478,44.09741221438075,0 -81.62966740417475,44.09199555860059,0 -81.62253743037797,44.08917515216166,0 -81.61272646902705,44.08520505635519,0 -81.60154864339411,44.08066869242047,0 -81.5982823829174,44.07935696641233,0 -81.59370784371426,44.07754165276823,0 -81.58833959484082,44.07536892112437,0 -81.58325146023056,44.07335236270215,0 -81.57827878454131,44.07133227966612,0 -81.57540577851746,44.0751696810346,0 -81.56589634227177,44.08751743889074,0 -81.55353812471226,44.10365125595497,0 -81.54430172460644,44.11566972159237,0 -81.5379252004406,44.12385630040252,0 -81.54797428148579,44.12789216683751,0 -81.5601532050654,44.13262922003648,0 -81.57535588057092,44.13858981309258,0 -81.5825642356039,44.1414327762265,0 -81.58589750957434,44.14277357149723,0 -81.58967164366753,44.14422829671293,0 -81.59324321814466,44.14569719056621,0 -81.59584675208788,44.14674509312478,0 -81.59833097363412,44.14819384085624,0 -81.60051003225526,44.14911037193632,0 -81.60325798708541,44.15020352075934,0 -81.60398152556908,44.15038069426385,0 -81.60400667543574,44.15037040171212,0 -81.60470192057851,44.15048666811591,0 -81.60604805112058,44.15074467416586,0 -81.61231531584997,44.15320108289866,0 -81.6183088266243,44.15552764142176,0 -81.62675223022161,44.15895671640665,0 -81.64629029737752,44.16654329480016,0 -81.6466657714443,44.16675316072784,0 -81.64662905373493,44.16682018125246,0 
				</coordinates>
			</LineString>
		</Placemark>
	</Folder>
</Document>
</kml>
