<?xml version="1.0" encoding="UTF-8"?>
<kml xmlns="http://www.opengis.net/kml/2.2" xmlns:gx="http://www.google.com/kml/ext/2.2" xmlns:kml="http://www.opengis.net/kml/2.2" xmlns:atom="http://www.w3.org/2005/Atom">
<Document>
	<name>Small Town Loop Motorcycle Tour.kml</name>
	<Style id="s_ylw-pushpin_hl">
		<IconStyle>
			<scale>1.3</scale>
			<Icon>
				<href>http://maps.google.com/mapfiles/kml/pushpin/ylw-pushpin.png</href>
			</Icon>
			<hotSpot x="20" y="2" xunits="pixels" yunits="pixels"/>
		</IconStyle>
		<LineStyle>
			<color>ff2fa1f7</color>
			<width>3</width>
		</LineStyle>
	</Style>
	<StyleMap id="m_ylw-pushpin">
		<Pair>
			<key>normal</key>
			<styleUrl>#s_ylw-pushpin</styleUrl>
		</Pair>
		<Pair>
			<key>highlight</key>
			<styleUrl>#s_ylw-pushpin_hl</styleUrl>
		</Pair>
	</StyleMap>
	<Style id="s_ylw-pushpin">
		<IconStyle>
			<scale>1.1</scale>
			<Icon>
				<href>http://maps.google.com/mapfiles/kml/pushpin/ylw-pushpin.png</href>
			</Icon>
			<hotSpot x="20" y="2" xunits="pixels" yunits="pixels"/>
		</IconStyle>
		<LineStyle>
			<color>ff2fa1f7</color>
			<width>3</width>
		</LineStyle>
	</Style>
	<Folder>
		<name>Small Town Loop Motorcycle Tour</name>
		<open>1</open>
		<Placemark>
			<name>Untitled Path</name>
			<styleUrl>#m_ylw-pushpin</styleUrl>
			<LineString>
				<tessellate>1</tessellate>
				<coordinates>
					-81.757980145907,44.07344286595862,0 -81.7538946403303,44.07216094182002,0 -81.75803516879775,44.07332633080485,0 -81.75021896771042,44.07668256447114,0 -81.74372376847627,44.07425616256857,0 -81.7326295357956,44.09076242086577,0 -81.72983366445175,44.08988403667762,0 -81.72644034015335,44.09507385972267,0 -81.71532361238116,44.10496611299178,0 -81.70981734155558,44.10882884347341,0 -81.70715292323383,44.11187148645648,0 -81.69950771008305,44.11813591121793,0 -81.69006608719228,44.12676277225543,0 -81.68382270374647,44.13113294419199,0 -81.67873552729188,44.13335172942072,0 -81.67364445765,44.13539796477576,0 -81.66945042563879,44.14009358745514,0 -81.66688286763282,44.14322220462529,0 -81.66323111331504,44.14599283492076,0 -81.66039942362141,44.14857713834285,0 -81.65682093748191,44.15087432749215,0 -81.65426801508599,44.15218539383939,0 -81.65187929111117,44.15369507250316,0 -81.64987938097953,44.15572298233827,0 -81.64899193153759,44.15683650402907,0 -81.65005535122802,44.15739409026153,0 -81.65137786418556,44.15819100705651,0 -81.6534224759375,44.15886991318799,0 -81.65502327704436,44.15950981696616,0 -81.65530005332039,44.15970932199825,0 -81.65457657737177,44.16046574463235,0 -81.65274244914571,44.16146023906687,0 -81.65112826885257,44.16245572771137,0 -81.64999717015012,44.16393269986391,0 -81.64838736030885,44.16524630430134,0 -81.64583573352532,44.16739410730059,0 -81.64387840152662,44.1698656804338,0 -81.64178902508223,44.17168602260042,0 -81.6403602329805,44.17329575763514,0 -81.63904642949362,44.17554525423557,0 -81.63996588330836,44.17600151220898,0 -81.63903221128859,44.17579279484045,0 -81.63869921285047,44.17607117181052,0 -81.6383006063493,44.17671459946673,0 -81.63785883028162,44.17723669380877,0 -81.63765239881329,44.17774418619013,0 -81.63821437802946,44.1779679794483,0 -81.63902865544314,44.17806154198443,0 -81.63962848868039,44.17870902092661,0 -81.64006153139299,44.1787990156184,0 -81.63945542883994,44.17943151576079,0 -81.63890729007764,44.18010190044351,0 -81.63928204846131,44.18051378276635,0 -81.63927345596775,44.18115996115064,0 -81.63899287650625,44.18191981741657,0 -81.63893513769365,44.18260025786186,0 -81.63844183125426,44.18342940577502,0 -81.63467107274623,44.18206286236552,0 -81.63213347272827,44.18149674733161,0 -81.62622510185321,44.17920316114533,0 -81.62506616065009,44.17916069222783,0 -81.62396534248299,44.17943492507826,0 -81.62335231609121,44.17947551455539,0 -81.62213164512002,44.18094275529455,0 -81.62119649646893,44.18109798168032,0 -81.6210855517084,44.18113763014581,0 -81.62031223736817,44.18121562761779,0 -81.6192696788319,44.18077566756382,0 -81.61838879547737,44.18037746887021,0 -81.61705934397081,44.1799409560994,0 -81.61309790151071,44.17969533241718,0 -81.6114831185149,44.18040812764554,0 -81.61004806829369,44.1815147537726,0 -81.60896208649915,44.18281824318145,0 -81.60755271385896,44.18470995069644,0 -81.60420179538171,44.18868826650099,0 -81.6006492677905,44.19368237780473,0 -81.59367634941755,44.20259126913842,0 -81.58695875921086,44.21150637599153,0 -81.57068059328188,44.23272850192267,0 -81.55884033697333,44.24815633757427,0 -81.54943585212776,44.26040298113519,0 -81.54422844320214,44.26675631444974,0 -81.54345766532853,44.26761700707588,0 -81.53469930644488,44.26417496687829,0 -81.52746937273567,44.26141316883728,0 -81.52538577727624,44.26136992379057,0 -81.52423431807038,44.26144616731916,0 -81.52297408019754,44.26156123132018,0 -81.52116657489132,44.26179274165614,0 -81.52111175567346,44.26179263379217,0 -81.52007386731246,44.26241724087323,0 -81.51897924503577,44.26308114809949,0 -81.517333720797,44.26394062904281,0 -81.51397083285272,44.26856448707895,0 -81.50909211030505,44.27459997948653,0 -81.50094663098793,44.2851083007106,0 -81.48905077960222,44.30040077872133,0 -81.47910547949148,44.31326061252059,0 -81.46373458505337,44.33316955969823,0 -81.44725793674942,44.3542426287307,0 -81.44165182646323,44.36151822543294,0 -81.43979611276703,44.36409442095351,0 -81.43884402441134,44.36606602619396,0 -81.4385953494259,44.36778899405679,0 -81.43924283727181,44.36889738044449,0 -81.43908446015452,44.37054450641511,0 -81.43907627780858,44.37078440195834,0 -81.43901298465775,44.37102430374094,0 -81.4389543558587,44.371301151982,0 -81.43872498762953,44.37224880612309,0 -81.43512647135405,44.37712879573413,0 -81.42910359211176,44.38490453066649,0 -81.41563417332833,44.40248205361287,0 -81.40562392254773,44.4148882490012,0 -81.39538451677346,44.42824831943948,0 -81.38868037696912,44.43657940378083,0 -81.38511445271558,44.44108887318531,0 -81.3781080101776,44.44966093693127,0 -81.37187337330961,44.45766210800905,0 -81.36616656716235,44.46519411437371,0 -81.36437535091125,44.46709380796523,0 -81.36436963068167,44.4681258095062,0 -81.36446966390703,44.46920026306032,0 -81.36523998227221,44.47035535595687,0 -81.36523972283182,44.47039507580777,0 -81.36573241719441,44.47103481052604,0 -81.36750421652731,44.47199694851048,0 -81.36960827641873,44.4731215431657,0 -81.37049249565149,44.47372460351387,0 -81.37269335848372,44.47883419165657,0 -81.37557901361338,44.48508463383763,0 -81.37668414488427,44.48768931385323,0 -81.37558714008269,44.49066545116355,0 -81.37429198441096,44.49213466342908,0 -81.37288546674057,44.4938060428014,0 -81.37220805921827,44.49483917226979,0 -81.37164416548129,44.49567507267226,0 -81.36918935049012,44.49891622448035,0 -81.36807544207794,44.50018033483926,0 -81.36687975887,44.50153876562683,0 -81.36531042559299,44.50204654024955,0 -81.36418967238232,44.5024755507102,0 -81.36431742938258,44.50316210982762,0 -81.36431640118651,44.50332151794537,0 -81.36437099092727,44.50352096518597,0 -81.36436970529509,44.50372022738227,0 -81.36436816171005,44.50395934357157,0 -81.36436687690801,44.50415860700905,0 -81.36436558726035,44.50439824601989,0 -81.36436450811595,44.50467876183036,0 -81.36436347889966,44.50483820229535,0 -81.3643627061407,44.50495778343243,0 -81.36436091368492,44.50523682082352,0 -81.36435982388491,44.50543656893918,0 -81.36435894295116,44.50567727778833,0 -81.3643581321584,44.50587774443613,0 -81.36435710325021,44.50603722970615,0 -81.36435607495818,44.50619671487554,0 -81.36435504670439,44.50635619975179,0 -81.36435362291286,44.50659572665499,0 -81.36440866604869,44.50675581714473,0 -81.3644642211413,44.50699825397642,0 -81.36446319347959,44.50715778732514,0 -81.36451814188513,44.5073176483351,0 -81.36451762829236,44.50739741481885,0 -81.36171590602702,44.50995539908102,0 -81.35833741472045,44.51385833556819,0 -81.35566604142304,44.5177429147781,0 -81.35538192642964,44.51846100939282,0 -81.3536835635455,44.52159472765818,0 -81.35260889607665,44.52318585242711,0 -81.35204240357534,44.52418082593861,0 -81.35141825555407,44.5254134472446,0 -81.35124421534516,44.52641672259535,0 -81.35055993177841,44.52824559241701,0 -81.34962942943805,44.53017344644692,0 -81.34945356262999,44.53153350512729,0 -81.34665839260117,44.53495295701259,0 -81.34344805233771,44.53729487044382,0 -81.34069289378124,44.53896288921789,0 -81.33742162195192,44.54222594347516,0 -81.33494098746435,44.54445395149766,0 -81.33392812902679,44.54516790799153,0 -81.33252866817836,44.54571295469657,0 -81.32972621532632,44.54697128189638,0 -81.32708588258896,44.54768622915115,0 -81.32166094525851,44.55033987679236,0 -81.32076379576705,44.55093249413071,0 -81.32047145078542,44.55185428611956,0 -81.31801089927929,44.55692934042268,0 -81.31327567931923,44.56120952537879,0 -81.31005016878717,44.56387906253609,0 -81.30798119474353,44.56525995928205,0 -81.30710915412314,44.56710440699902,0 -81.30569971026647,44.56877345695814,0 -81.30479189519811,44.57016808528339,0 -81.30231609006589,44.57289581596632,0 -81.29967282365001,44.57436247729984,0 -81.29690964753178,44.57535334176918,0 -81.29387423500113,44.57685789657711,0 -81.29196431458745,44.57836490463237,0 -81.28585519051485,44.58481690309766,0 -81.28193169501597,44.58679136321884,0 -81.2801689754086,44.58804634985587,0 -81.27321674120122,44.59109567222544,0 -81.2705416042804,44.59223613886844,0 -81.26969659415907,44.59354321496159,0 -81.26990837822051,44.59481533729112,0 -81.27013704619969,44.60749720905198,0 -81.27021640539532,44.61033500452024,0 -81.27015037977333,44.61113522889926,0 -81.26980577822897,44.61244868720093,0 -81.26980077845472,44.6132057338337,0 -81.26770698796342,44.61702363818496,0 -81.26681790950137,44.61974217877754,0 -81.26607829849223,44.62125323961681,0 -81.26539350907204,44.6229631460792,0 -81.26539258429963,44.62304311810225,0 -81.26560545593769,44.62416218531225,0 -81.26486485336167,44.62579242570941,0 -81.26506831287773,44.62787129500325,0 -81.26482584001651,44.62971002753157,0 -81.25740748385037,44.62981062884973,0 -81.24899474089172,44.63010958703102,0 -81.24048135761093,44.63056485334998,0 -81.21015183455428,44.6313701088383,0 -81.20829225730675,44.59743445165944,0 -81.20879130162135,44.59588465808557,0 -81.20989334859878,44.59499071113201,0 -81.21042351969929,44.59376719285945,0 -81.20995583643483,44.59216285182933,0 -81.20922391370263,44.59113845625501,0 -81.20810044442409,44.58987061746246,0 -81.20760353150715,44.58889180201001,0 -81.20511424603164,44.54799603175723,0 -81.20404199976171,44.53108965842394,0 -81.20002621177836,44.53180608439281,0 -81.18803323960972,44.53381820030869,0 -81.1815474005931,44.53562360572738,0 -81.17588431816688,44.53593058578595,0 -81.16890742581954,44.53737041716425,0 -81.16403609690276,44.53808210017431,0 -81.16247828702112,44.53827761325741,0 -81.15487915706333,44.5100286586738,0 -81.14225427357646,44.46606225414752,0 -81.12729856051583,44.41031299506588,0 -81.12686488263282,44.40819557692725,0 -81.12284197743263,44.39516582852218,0 -81.11764181227301,44.37581756470257,0 -81.10939153770902,44.34723980074192,0 -81.10158106253932,44.32049764409597,0 -81.17667765672707,44.30982297096243,0 -81.23888263771433,44.30054776958237,0 -81.24153988618245,44.30034900820224,0 -81.24321118424936,44.30121942834653,0 -81.2460428537656,44.30294584230969,0 -81.24796187041038,44.30474921339093,0 -81.25243668233625,44.30729054043282,0 -81.25396376833436,44.30855929485607,0 -81.25629718879793,44.30971250875388,0 -81.25800077402069,44.31012687341367,0 -81.26189226378136,44.30971352667533,0 -81.26468949212087,44.30886557945061,0 -81.26620918623257,44.30886821616804,0 -81.26840628549846,44.30805657012483,0 -81.27120371821697,44.30727231848447,0 -81.27284474963506,44.3065123670751,0 -81.2744115391103,44.30482780790075,0 -81.27497789137502,44.30376530726235,0 -81.27515784161471,44.30274467035392,0 -81.27585863574755,44.30176714250248,0 -81.2769374424947,44.30132197986348,0 -81.27915957986383,44.30038946683699,0 -81.28037376072784,44.30051673047829,0 -81.28201629822277,44.30036021623157,0 -81.28325462593106,44.30004155951304,0 -81.28406585147246,44.29919172457745,0 -81.28445167039,44.29854326088439,0 -81.28450725404807,44.29766199768309,0 -81.28524860736535,44.29705258258982,0 -81.28632402420359,44.29591221566359,0 -81.28728804568017,44.29473584093275,0 -81.28830764740424,44.29429290231778,0 -81.28876899007939,44.29360537325291,0 -81.28922953642349,44.29299864808772,0 -81.28923065440299,44.29287690941089,0 -81.2894102848244,44.29218748000962,0 -81.28873502622413,44.29137299487362,0 -81.28902396971122,44.29084618516473,0 -81.28465640888987,44.27615249171444,0 -81.28494375090358,44.27558579517661,0 -81.28494438153,44.27534321441125,0 -81.28511527189774,44.27518187717643,0 -81.28528621956349,44.27506084276194,0 -81.28551319458185,44.27502117554704,0 -81.28574048659399,44.27494093697241,0 -81.28596777927248,44.27486069973648,0 -81.28619507053779,44.27478046014913,0 -81.2863656984055,44.27469999669802,0 -81.2865939425279,44.27461913087551,0 -81.28676467916951,44.27461934401873,0 -81.28704895908872,44.27453914499964,0 -81.28727460431617,44.27454070248752,0 -81.28738813232596,44.27454104060537,0 -81.30919798816169,44.27148528234453,0 -81.33080987947814,44.26840066647303,0 -81.3346234448525,44.26751278215986,0 -81.33674784306514,44.26665501085018,0 -81.3390004530562,44.26537828121137,0 -81.34512645938005,44.25812038666444,0 -81.36273685630614,44.2377237743552,0 -81.37621962858549,44.22182799225667,0 -81.38871938379516,44.20562879468971,0 -81.40088772156153,44.18917214911758,0 -81.41312138455184,44.17310667894343,0 -81.42516035904043,44.15722694607634,0 -81.43042133466349,44.14962338045889,0 -81.45833358404036,44.11345500392893,0 -81.49480557081885,44.12807320959187,0 -81.50236275432393,44.13039164425631,0 -81.50372348909134,44.13125963606188,0 -81.50454435965494,44.13222371592462,0 -81.50454582261833,44.13232000090891,0 -81.50616731380575,44.13280490571133,0 -81.50792207014325,44.13242312318916,0 -81.51050665855854,44.13426000604379,0 -81.51361747543709,44.13513496150342,0 -81.56198656176406,44.15387888897178,0 -81.56473988323356,44.15584010528098,0 -81.56787526501094,44.15691993973325,0 -81.57048228741031,44.15780824206755,0 -81.57422709900419,44.15851709233513,0 -81.61429325406677,44.17387089451347,0 -81.61607547927959,44.17418551309721,0 -81.61782614582546,44.17204667597697,0 -81.61955586918268,44.16874465099764,0 -81.62157740192927,44.1666130934921,0 -81.62544460170992,44.16177946595794,0 -81.62688875637353,44.15927463607042,0 -81.66322972624229,44.11283378301828,0 -81.68070960186378,44.08993746659443,0 -81.70496177442064,44.05961211706237,0 -81.74326429201028,44.07375115858559,0 -81.74389542361817,44.07426305849675,0 -81.74990125597306,44.07684845715476,0 
				</coordinates>
			</LineString>
		</Placemark>
	</Folder>
</Document>
</kml>
