<?xml version="1.0" encoding="UTF-8"?>
<kml xmlns="http://www.opengis.net/kml/2.2" xmlns:gx="http://www.google.com/kml/ext/2.2" xmlns:kml="http://www.opengis.net/kml/2.2" xmlns:atom="http://www.w3.org/2005/Atom">
<Document>
	<name>Peninsula Lighthouse Tour.kml</name>
	<Style id="s_ylw-pushpin_hl">
		<IconStyle>
			<scale>1.3</scale>
			<Icon>
				<href>http://maps.google.com/mapfiles/kml/pushpin/ylw-pushpin.png</href>
			</Icon>
			<hotSpot x="20" y="2" xunits="pixels" yunits="pixels"/>
		</IconStyle>
		<LineStyle>
			<color>ff2fa1f7</color>
			<width>3</width>
		</LineStyle>
	</Style>
	<StyleMap id="m_ylw-pushpin">
		<Pair>
			<key>normal</key>
			<styleUrl>#s_ylw-pushpin</styleUrl>
		</Pair>
		<Pair>
			<key>highlight</key>
			<styleUrl>#s_ylw-pushpin_hl</styleUrl>
		</Pair>
	</StyleMap>
	<Style id="s_ylw-pushpin">
		<IconStyle>
			<scale>1.1</scale>
			<Icon>
				<href>http://maps.google.com/mapfiles/kml/pushpin/ylw-pushpin.png</href>
			</Icon>
			<hotSpot x="20" y="2" xunits="pixels" yunits="pixels"/>
		</IconStyle>
		<LineStyle>
			<color>ff2fa1f7</color>
			<width>3</width>
		</LineStyle>
	</Style>
	<Folder>
		<name>Peninsula Lighthouse Tour</name>
		<open>1</open>
		<Placemark>
			<name>Peninsula Lighthouse Tour</name>
			<styleUrl>#m_ylw-pushpin</styleUrl>
			<LineString>
				<tessellate>1</tessellate>
				<coordinates>
					-81.66646461358442,45.2550835170367,0 -81.66302594769357,45.25210279475632,0 -81.65132276374854,45.24218279686913,0 -81.64218671922272,45.23721862317529,0 -81.63017263502024,45.23114158335077,0 -81.60560602355623,45.21854333020393,0 -81.58358732700512,45.20716048851965,0 -81.55852550316236,45.19407753411262,0 -81.53889695324006,45.1838877823259,0 -81.52546583830498,45.1770087141741,0 -81.50951977249436,45.16856629787853,0 -81.48906369860426,45.15775509630063,0 -81.46031622223046,45.14261301846688,0 -81.44696512740093,45.13553108270982,0 -81.44267208313711,45.13317703256732,0 -81.43803312486229,45.12771370960028,0 -81.43755320701661,45.12506274745304,0 -81.43872715053578,45.12042031549483,0 -81.44305462292044,45.10396996662435,0 -81.44311941096568,45.10196328898478,0 -81.44303890562409,45.10158931400321,0 -81.44234701135916,45.0998654502665,0 -81.43617743751309,45.09268747700791,0 -81.43055984840841,45.08635896603831,0 -81.42998113214152,45.08587560649632,0 -81.4159545519301,45.069751895896,0 -81.36427998158973,45.04908973782317,0 -81.35807929731573,45.0453424391394,0 -81.35165338597,45.04210100478893,0 -81.32195486374142,45.03210566104856,0 -81.31695544115857,45.02919211361203,0 -81.31385718878444,45.02333360507788,0 -81.29665612694521,44.98930951302994,0 -81.26055096828414,44.99796283812888,0 -81.26022986009174,44.99822561107207,0 -81.25680151369846,44.99174748921301,0 -81.25617781354818,44.99062364765453,0 -81.25456738898684,44.99109295433186,0 -81.25354891446956,44.98942903624393,0 -81.25036625769484,44.99153672932559,0 -81.25327249305606,44.98973648949111,0 -81.25350036900485,44.98930428985839,0 -81.25312504003672,44.98855542391497,0 -81.25486410836409,44.98812374574495,0 -81.25355827110063,44.98560474063468,0 -81.25132965268315,44.98121035282376,0 -81.24254162529124,44.96419185382033,0 -81.24009899351766,44.9615603862616,0 -81.23609967598392,44.96127067884782,0 -81.23288728080438,44.96206902613643,0 -81.22927044559658,44.9628578333659,0 -81.22830645996281,44.96281953094302,0 -81.22220143975038,44.95004346896432,0 -81.22073204425971,44.94705041585395,0 -81.21933302811122,44.94549581749487,0 -81.21778595740106,44.94494350543938,0 -81.21525468265753,44.94485081517056,0 -81.21429157400365,44.94499565570807,0 -81.21275956383772,44.94474770601899,0 -81.21146055406855,44.94432633560815,0 -81.20945253281825,44.94381750599753,0 -81.20650709724116,44.9435846149138,0 -81.20429209527187,44.94331637245846,0 -81.19791079732019,44.9424317254152,0 -81.1950986154626,44.94084266152912,0 -81.19159308375129,44.94010115883455,0 -81.18776405101762,44.93820444468664,0 -81.18776673142838,44.93813270335203,0 -81.18867570927968,44.93766992004085,0 -81.18858370796806,44.93745129423756,0 -81.18733398022752,44.93416777601845,0 -81.18560598611076,44.93170118503758,0 -81.18408457713639,44.92962446660917,0 -81.18345180453872,44.92749144692357,0 -81.18289514370285,44.92584900039392,0 -81.18344746351393,44.92330383993678,0 -81.18260098240164,44.92159237370008,0 -81.18033196172506,44.9181926345596,0 -81.17815840411312,44.91657338350741,0 -81.17606740151489,44.91390238226533,0 -81.17485943711128,44.90941825219049,0 -81.17190571777611,44.90356009690652,0 -81.16968849413178,44.90045944794366,0 -81.15702356064618,44.90410177782252,0 -81.15613804945764,44.90294457616001,0 -81.16906123841751,44.8993445693422,0 -81.16356194819535,44.8872134055952,0 -81.15552828061682,44.86989844058686,0 -81.10601130499063,44.88151646139532,0 -81.09986619819932,44.87148285053065,0 -81.08923542711551,44.87457487092048,0 -81.07828244460389,44.88518019611821,0 -81.07177724827216,44.89065948324261,0 -81.04641161894172,44.90019308278416,0 -81.01193566451471,44.93225363386828,0 -81.02186686085092,44.93694560171117,0 -80.99076199731726,44.96651765441166,0 -80.98543296435652,44.9634682142961,0 -80.98001272323302,44.96254676248449,0 -80.97369351558284,44.96145974178274,0 -80.96393928201405,44.95855274873841,0 -80.96116629906004,44.95690602181298,0 -80.96054366464323,44.95641095271323,0 
				</coordinates>
			</LineString>
		</Placemark>
	</Folder>
</Document>
</kml>
