<?xml version="1.0" encoding="UTF-8"?>
<kml xmlns="http://www.opengis.net/kml/2.2" xmlns:gx="http://www.google.com/kml/ext/2.2" xmlns:kml="http://www.opengis.net/kml/2.2" xmlns:atom="http://www.w3.org/2005/Atom">
<Document>
	<name>Coast 2 Coast.kml</name>
	<Style id="sn_ylw-pushpin">
		<IconStyle>
			<scale>1.1</scale>
			<Icon>
				<href>http://maps.google.com/mapfiles/kml/pushpin/ylw-pushpin.png</href>
			</Icon>
			<hotSpot x="20" y="2" xunits="pixels" yunits="pixels"/>
		</IconStyle>
		<LineStyle>
			<color>ff0000ff</color>
			<width>3</width>
		</LineStyle>
	</Style>
	<Style id="sh_ylw-pushpin">
		<IconStyle>
			<scale>1.3</scale>
			<Icon>
				<href>http://maps.google.com/mapfiles/kml/pushpin/ylw-pushpin.png</href>
			</Icon>
			<hotSpot x="20" y="2" xunits="pixels" yunits="pixels"/>
		</IconStyle>
		<LineStyle>
			<color>ff0000ff</color>
			<width>3</width>
		</LineStyle>
	</Style>
	<StyleMap id="msn_ylw-pushpin">
		<Pair>
			<key>normal</key>
			<styleUrl>#sn_ylw-pushpin</styleUrl>
		</Pair>
		<Pair>
			<key>highlight</key>
			<styleUrl>#sh_ylw-pushpin</styleUrl>
		</Pair>
	</StyleMap>
	<Folder>
		<name>Coast 2 Coast</name>
		<open>1</open>
		<Placemark>
			<name>Coast 2 Coast</name>
			<styleUrl>#msn_ylw-pushpin</styleUrl>
			<LineString>
				<tessellate>1</tessellate>
				<coordinates>
					-81.14090558853431,44.74374001874629,0 -81.14140407074135,44.75103450503677,0 -81.14199614216648,44.75099695751955,0 -81.14304809759996,44.75097324811374,0 -81.14490523056095,44.75090739663717,0 -81.14688772379117,44.75091630266892,0 -81.14791064835073,44.75098235334868,0 -81.14929582247918,44.75149588933758,0 -81.15058679290131,44.7522361717452,0 -81.15160961255178,44.75285131108345,0 -81.15246161708691,44.75325178473574,0 -81.15285633449504,44.75335004909128,0 -81.15339176359028,44.75347005881169,0 -81.15417269284669,44.75358416937208,0 -81.15486885176348,44.75354367917988,0 -81.15648744600146,44.75348058437032,0 -81.16035858005763,44.75333515908969,0 -81.16358106466649,44.75322679279903,0 -81.16676927641254,44.75314422104247,0 -81.17024025820788,44.75296196893489,0 -81.17532830075326,44.75278584152284,0 -81.17993574595077,44.75258408622183,0 -81.18466858392743,44.75243571168076,0 -81.19039130136909,44.75225478048031,0 -81.19450693188179,44.75207672284699,0 -81.19965808085526,44.75191215937498,0 -81.20520309822264,44.75173426197542,0 -81.20782175433922,44.75162824233095,0 -81.20846318103516,44.75152269449296,0 -81.20930370269819,44.75128217202547,0 -81.21033887369747,44.75080634394431,0 -81.21129700207898,44.75013246263687,0 -81.21244414047303,44.74930263023683,0 -81.21401373539855,44.74807337865529,0 -81.21641073790146,44.74626517501483,0 -81.21904469633068,44.7442772235736,0 -81.22129513289821,44.74268205272656,0 -81.22215413806563,44.74233174353527,0 -81.22292683655216,44.74214030329404,0 -81.22428562947263,44.74193915319798,0 -81.22762088708302,44.74183309427706,0 -81.23294596291056,44.74159500130536,0 -81.23348613569465,44.74154854590461,0 -81.2356776250879,44.74059986818953,0 -81.23661819501093,44.73975933933157,0 -81.23952923508894,44.73731221539197,0 -81.24126513307148,44.73587600897146,0 -81.24264939999537,44.73495130518977,0 -81.24390184222122,44.7342019798396,0 -81.2456247159034,44.7333850352055,0 -81.24746812463599,44.73266018936456,0 -81.24888869720431,44.73212351837378,0 -81.24966607121679,44.73194656515976,0 -81.25041589523102,44.73188908663048,0 -81.25149782558509,44.73174332213965,0 -81.25231502379012,44.73154328448461,0 -81.25323498564926,44.73115627843369,0 -81.2539328522184,44.73074473683268,0 -81.2551917198757,44.7301612922532,0 -81.25605323042707,44.72993597343843,0 -81.25779821650956,44.72974384464143,0 -81.25919826588151,44.72975323894506,0 -81.26737961987551,44.72952833994023,0 -81.27359043453626,44.7293452154405,0 -81.27848081425137,44.72922731539308,0 -81.27861921342773,44.72906487908717,0 -81.27871568399421,44.7281339914185,0 -81.27876193288874,44.7275114267994,0 -81.27884152060659,44.72713969141272,0 -81.27875965978367,44.72681874956776,0 -81.27858481851942,44.7265837492825,0 -81.27835988374044,44.72650393118393,0 -81.27798315952201,44.72649386865878,0 -81.2775851950349,44.72657950158067,0 -81.27723384745701,44.72656263824739,0 -81.27691668813687,44.72644674930869,0 -81.27664099006594,44.72621875140275,0 -81.27639230808624,44.72568622851915,0 -81.27634041485403,44.72531349247861,0 -81.27647453294622,44.72500065286324,0 -81.2769154829858,44.72434639922055,0 -81.27707500919638,44.72400486118075,0 -81.27699880085913,44.72363713363536,0 -81.27680859367426,44.72328007072187,0 -81.27661114493992,44.72083810476079,0 -81.27648430399582,44.72029627645524,0 -81.27599074547082,44.71846220632695,0 -81.27523909384618,44.71592792168431,0 -81.27512388513382,44.7155140166243,0 -81.2749086049452,44.71468089910812,0 -81.27459705961013,44.71415939311302,0 -81.27424359179111,44.71364273402123,0 -81.27406549127561,44.71334267859453,0 -81.27401501699569,44.71310348015845,0 -81.27395726994836,44.71286909888123,0 -81.27414721511975,44.71250249760751,0 -81.27425881298689,44.71234437112757,0 -81.27455450616364,44.71217472728993,0 -81.27549634941818,44.7117016203725,0 -81.27570246498462,44.7115227270824,0 -81.27584907454821,44.71111358387434,0 -81.27590644921772,44.71082265886958,0 -81.27591181196813,44.71062372149392,0 -81.2756234946709,44.70968964385046,0 -81.27509879807711,44.70808928524354,0 -81.27478981630722,44.70726119557145,0 -81.27434406386217,44.70634823060902,0 -81.27425224997944,44.70609995874516,0 -81.27432215706799,44.70547710860402,0 -81.27463738352699,44.7044822329886,0 -81.27485417896098,44.70354452379391,0 -81.27508412426046,44.70275569758611,0 -81.27505093320021,44.70256329320709,0 -81.2749271937159,44.70225773348437,0 -81.27469198276154,44.70201441288448,0 -81.27447981410541,44.70169594611138,0 -81.27418864876266,44.70143008386559,0 -81.27384920998526,44.70124753904319,0 -81.27354290174337,44.70114416235877,0 -81.27310579524024,44.70115829299857,0 -81.27282099847992,44.70108607038207,0 -81.27278959293139,44.70085831067674,0 -81.27309283539189,44.7000143740478,0 -81.27338702574993,44.69927294294282,0 -81.27369003296538,44.69865201625669,0 -81.27413709719744,44.69823502391868,0 -81.27467057604956,44.69804711323314,0 -81.27597942081447,44.69802885918583,0 -81.27651767089368,44.69800272177198,0 -81.27664767225669,44.69778341691896,0 -81.27665797708347,44.69730751322209,0 -81.2766176081997,44.69619930136248,0 -81.27654982742857,44.69539468048658,0 -81.27395284306545,44.69553770526699,0 -81.27082726826433,44.69567573897174,0 -81.26719934964147,44.69579333500136,0 -81.26241231345648,44.69599296921717,0 -81.25725943317332,44.69615319732469,0 -81.25565913302738,44.69623129142895,0 -81.25558561565889,44.69439908420402,0 -81.25543967418456,44.69140752526408,0 -81.25545643383309,44.68981595899544,0 -81.2555603583267,44.68602206239142,0 -81.25564208703688,44.68396836979003,0 -81.25601473418892,44.6815582695986,0 -81.25626776795252,44.68031661053787,0 -81.25634357769334,44.67964259392137,0 -81.25628291075861,44.67914853526209,0 -81.25603700065427,44.67853477409329,0 -81.25564697166837,44.6779372152937,0 -81.25541484973651,44.67652881258591,0 -81.25535749939434,44.67553550880614,0 -81.25543613914324,44.67485217298203,0 -81.25543272481083,44.67424822405626,0 -81.25540886984241,44.6734268102831,0 -81.25544643323778,44.67331488146672,0 -81.25723386225678,44.67311641513079,0 -81.25902009016406,44.67290676522833,0 -81.26004216107425,44.67279611651331,0 -81.26136349258522,44.67280081395683,0 -81.26242327120976,44.67285101788032,0 -81.26291863559513,44.67287650681674,0 -81.26397009589881,44.6725817564739,0 -81.26437893812665,44.67207967443076,0 -81.26526201596489,44.67084533377756,0 -81.26679999160841,44.66869372319935,0 -81.26767488586224,44.66751695075377,0 -81.26795116719001,44.66709588401523,0 -81.26818582302249,44.66646121488725,0 -81.26828891389243,44.66611789991471,0 -81.26838190403272,44.6656688912654,0 -81.26849692237614,44.66551210450442,0 -81.269202586803,44.6648777303593,0 -81.26962097408874,44.66445887684075,0 -81.27003563803994,44.66396364778023,0 -81.27029393592336,44.66360529100894,0 -81.27040987313633,44.66321928821118,0 -81.27074036446541,44.66224729807318,0 -81.27082143565208,44.66214104590916,0 -81.27175865681704,44.66184212548954,0 -81.27266609783567,44.6613954269172,0 -81.27303493860443,44.66115003090248,0 -81.273232101855,44.66093509790007,0 -81.27356206164872,44.6606083596517,0 -81.27390144405405,44.66042042881829,0 -81.27418083542237,44.66033212089866,0 -81.27479461141087,44.66023695356029,0 -81.27528874098476,44.66021121436032,0 -81.2755578096511,44.65991335913718,0 -81.27563427674744,44.65980768410341,0 -81.27562582208211,44.65967294787833,0 -81.27561568464762,44.65961775359142,0 -81.27560928494513,44.65956372103802,0 -81.27561182937183,44.65953190392072,0 -81.27561984041564,44.65950836583291,0 -81.27562066281706,44.6594979333635,0 -81.27561966211147,44.65950551120496,0 -81.27560130619644,44.65947714434982,0 -81.27555569674748,44.6590997209393,0 -81.27555173398338,44.65908409261017,0 -81.27554621750615,44.65907517816412,0 -81.27554341963855,44.65906411518539,0 -81.27554341963855,44.65906411518539,0 -81.27554734005642,44.65907961719422,0 -81.27553891807418,44.65901488829083,0 -81.2755301789711,44.65897364505246,0 -81.27550287150888,44.65892635515875,0 -81.27547609516361,44.65887610665981,0 -81.27543808247053,44.65882214551652,0 -81.27535937498131,44.65868443349795,0 -81.27529242628252,44.65859838284287,0 -81.27525456236535,44.65853290697892,0 -81.27514844261374,44.65837543866809,0 -81.27510962890027,44.65825632665363,0 -81.27503213586834,44.65815496395572,0 -81.27497012058544,44.65808309549595,0 -81.27493315841159,44.65801868642021,0 -81.27487426380107,44.65793915046303,0 -81.27482671935499,44.65786641917786,0 -81.27479028845906,44.65782216078073,0 -81.27475995716621,44.65776883933955,0 -81.27474174531223,44.65773559142981,0 -81.2747254931213,44.65772046023415,0 -81.27472622494538,44.65769981737121,0 -81.2746681950192,44.65763064747262,0 -81.27456997030302,44.65747022766547,0 -81.27443617992745,44.6572970823018,0 -81.2743115435137,44.65709215628001,0 -81.27424402212104,44.65701619781839,0 -81.27418957070259,44.65693201354306,0 -81.27312781053895,44.6552209046888,0 -81.27302387827055,44.65499075136352,0 -81.2726908980174,44.65416315404055,0 -81.272264254045,44.65329354898026,0 -81.27197380459337,44.65277386507009,0 -81.2714705026044,44.65130914020194,0 -81.27116499252612,44.65010452549539,0 -81.2708627248297,44.64895868812074,0 -81.27062634898705,44.64777233659113,0 -81.27055193824613,44.64669542183746,0 -81.27047581289749,44.64420622583839,0 -81.27046814213296,44.64156968670085,0 -81.27048375349263,44.63862098629468,0 -81.27046033511446,44.63595232432723,0 -81.2703882358647,44.63407658631357,0 -81.27040957938192,44.63166339814669,0 -81.27045346092294,44.62948350581743,0 -81.25974331825675,44.62985055510505,0 -81.24433770049105,44.63023517423852,0 -81.22649152809927,44.63077225042618,0 -81.2131368605221,44.63120216915569,0 -81.20548653873615,44.63140220547856,0 -81.19595908106814,44.63163606472882,0 -81.18821823803667,44.63183558415567,0 -81.18216434436457,44.63201611283397,0 -81.17926113988031,44.63220236834556,0 -81.17744417441263,44.6322086265043,0 -81.17453784779505,44.63229286667466,0 -81.16954096628491,44.63243450979335,0 -81.16593199316449,44.63257773816894,0 -81.15933872283921,44.6328118758843,0 -81.15184206130658,44.63309411671792,0 -81.143257518358,44.63336971173273,0 -81.13619109831026,44.63362659034856,0 -81.13335788753835,44.6336986147226,0 -81.13333713494374,44.6344151174521,0 -81.13381711196952,44.64086066110281,0 -81.13430419991715,44.64803676283869,0 -81.13457647907799,44.65201184951469,0 -81.13487418865662,44.65651151996383,0 -81.13519149719093,44.66064174474711,0 -81.13547176732496,44.66446477040415,0 -81.13596960311345,44.67156239263615,0 -81.13627875959431,44.6759789953357,0 -81.13658789015597,44.68076236659626,0 -81.13697422376477,44.68623400567546,0 -81.13731025417729,44.69130507433906,0 -81.13773042597474,44.69729052899587,0 -81.13802450767862,44.70181770067924,0 -81.13844303046238,44.70684679241355,0 -81.13874891014945,44.71083742869418,0 -81.13903461131683,44.71458454701617,0 -81.13921094618856,44.71726646508206,0 -81.13941688539468,44.72117047868728,0 -81.13963895534356,44.72491782845306,0 -81.13984681378642,44.72766692113744,0 -81.14007204379328,44.73043759196362,0 -81.1402828617201,44.73495468861463,0 -81.14087573693034,44.74351018392418,0 
				</coordinates>
			</LineString>
		</Placemark>
	</Folder>
</Document>
</kml>
